[
	{
		"inputs": [],
		"payable": false,
		"stateMutability": "nonpayable",
		"type": "constructor"
	},
	{
		"payable": true,
		"stateMutability": "payable",
		"type": "fallback"
	},
	{
		"constant": true,
		"inputs": [],
		"name": "activated_",
		"outputs": [
			{
				"internalType": "bool",
				"name": "",
				"type": "bool"
			}
		],
		"payable": false,
		"stateMutability": "view",
		"type": "function"
	},
	{
		"constant": true,
		"inputs": [
			{
				"internalType": "uint256",
				"name": "",
				"type": "uint256"
			}
		],
		"name": "betHistory_",
		"outputs": [
			{
				"internalType": "uint256",
				"name": "betDateTime",
				"type": "uint256"
			},
			{
				"internalType": "uint256",
				"name": "pid",
				"type": "uint256"
			},
			{
				"internalType": "uint256",
				"name": "eth",
				"type": "uint256"
			}
		],
		"payable": false,
		"stateMutability": "view",
		"type": "function"
	},
	{
		"constant": true,
		"inputs": [],
		"name": "betId_",
		"outputs": [
			{
				"internalType": "uint256",
				"name": "",
				"type": "uint256"
			}
		],
		"payable": false,
		"stateMutability": "view",
		"type": "function"
	},
	{
		"constant": true,
		"inputs": [],
		"name": "betMax_",
		"outputs": [
			{
				"internalType": "uint256",
				"name": "",
				"type": "uint256"
			}
		],
		"payable": false,
		"stateMutability": "view",
		"type": "function"
	},
	{
		"constant": false,
		"inputs": [],
		"name": "bubbleSort",
		"outputs": [],
		"payable": false,
		"stateMutability": "nonpayable",
		"type": "function"
	},
	{
		"constant": true,
		"inputs": [],
		"name": "bx",
		"outputs": [
			{
				"internalType": "address payable",
				"name": "",
				"type": "address"
			}
		],
		"payable": false,
		"stateMutability": "view",
		"type": "function"
	},
	{
		"constant": true,
		"inputs": [],
		"name": "bxStartTime_",
		"outputs": [
			{
				"internalType": "uint256",
				"name": "",
				"type": "uint256"
			}
		],
		"payable": false,
		"stateMutability": "view",
		"type": "function"
	},
	{
		"constant": true,
		"inputs": [],
		"name": "bxTime_",
		"outputs": [
			{
				"internalType": "uint256",
				"name": "",
				"type": "uint256"
			}
		],
		"payable": false,
		"stateMutability": "view",
		"type": "function"
	},
	{
		"constant": true,
		"inputs": [],
		"name": "bxTotalCoin",
		"outputs": [
			{
				"internalType": "uint256",
				"name": "",
				"type": "uint256"
			}
		],
		"payable": false,
		"stateMutability": "view",
		"type": "function"
	},
	{
		"constant": true,
		"inputs": [
			{
				"internalType": "string",
				"name": "_code",
				"type": "string"
			}
		],
		"name": "checkInviteCode",
		"outputs": [
			{
				"internalType": "uint256",
				"name": "_pID",
				"type": "uint256"
			}
		],
		"payable": false,
		"stateMutability": "view",
		"type": "function"
	},
	{
		"constant": true,
		"inputs": [
			{
				"internalType": "uint256",
				"name": "",
				"type": "uint256"
			},
			{
				"internalType": "uint256",
				"name": "",
				"type": "uint256"
			}
		],
		"name": "drBestQue_",
		"outputs": [
			{
				"internalType": "uint256",
				"name": "",
				"type": "uint256"
			}
		],
		"payable": false,
		"stateMutability": "view",
		"type": "function"
	},
	{
		"constant": true,
		"inputs": [
			{
				"internalType": "uint256",
				"name": "",
				"type": "uint256"
			},
			{
				"internalType": "uint256",
				"name": "",
				"type": "uint256"
			}
		],
		"name": "drUserBet_",
		"outputs": [
			{
				"internalType": "uint256",
				"name": "",
				"type": "uint256"
			}
		],
		"payable": false,
		"stateMutability": "view",
		"type": "function"
	},
	{
		"constant": false,
		"inputs": [
			{
				"internalType": "string",
				"name": "_inviteCode",
				"type": "string"
			},
			{
				"internalType": "string",
				"name": "_referrer",
				"type": "string"
			}
		],
		"name": "ethcomein",
		"outputs": [],
		"payable": true,
		"stateMutability": "payable",
		"type": "function"
	},
	{
		"constant": false,
		"inputs": [],
		"name": "ethgetout",
		"outputs": [],
		"payable": false,
		"stateMutability": "nonpayable",
		"type": "function"
	},
	{
		"constant": true,
		"inputs": [
			{
				"internalType": "uint256",
				"name": "",
				"type": "uint256"
			}
		],
		"name": "exHistory_",
		"outputs": [
			{
				"internalType": "uint256",
				"name": "championId",
				"type": "uint256"
			},
			{
				"internalType": "uint256",
				"name": "champion",
				"type": "uint256"
			},
			{
				"internalType": "uint256",
				"name": "bronzeId",
				"type": "uint256"
			},
			{
				"internalType": "uint256",
				"name": "bronze",
				"type": "uint256"
			},
			{
				"internalType": "uint256",
				"name": "third",
				"type": "uint256"
			}
		],
		"payable": false,
		"stateMutability": "view",
		"type": "function"
	},
	{
		"constant": true,
		"inputs": [],
		"name": "excellencePot_",
		"outputs": [
			{
				"internalType": "uint256",
				"name": "",
				"type": "uint256"
			}
		],
		"payable": false,
		"stateMutability": "view",
		"type": "function"
	},
	{
		"constant": true,
		"inputs": [],
		"name": "excellenceRound_",
		"outputs": [
			{
				"internalType": "uint256",
				"name": "",
				"type": "uint256"
			}
		],
		"payable": false,
		"stateMutability": "view",
		"type": "function"
	},
	{
		"constant": true,
		"inputs": [],
		"name": "excellenceStartTime_",
		"outputs": [
			{
				"internalType": "uint256",
				"name": "",
				"type": "uint256"
			}
		],
		"payable": false,
		"stateMutability": "view",
		"type": "function"
	},
	{
		"constant": true,
		"inputs": [],
		"name": "excellenceTime_",
		"outputs": [
			{
				"internalType": "uint256",
				"name": "",
				"type": "uint256"
			}
		],
		"payable": false,
		"stateMutability": "view",
		"type": "function"
	},
	{
		"constant": true,
		"inputs": [],
		"name": "gBet_",
		"outputs": [
			{
				"internalType": "uint256",
				"name": "",
				"type": "uint256"
			}
		],
		"payable": false,
		"stateMutability": "view",
		"type": "function"
	},
	{
		"constant": true,
		"inputs": [],
		"name": "gBetcc_",
		"outputs": [
			{
				"internalType": "uint256",
				"name": "",
				"type": "uint256"
			}
		],
		"payable": false,
		"stateMutability": "view",
		"type": "function"
	},
	{
		"constant": true,
		"inputs": [
			{
				"internalType": "uint256",
				"name": "",
				"type": "uint256"
			}
		],
		"name": "gbReward_",
		"outputs": [
			{
				"internalType": "uint256",
				"name": "",
				"type": "uint256"
			}
		],
		"payable": false,
		"stateMutability": "view",
		"type": "function"
	},
	{
		"constant": true,
		"inputs": [],
		"name": "genRate_",
		"outputs": [
			{
				"internalType": "uint256",
				"name": "",
				"type": "uint256"
			}
		],
		"payable": false,
		"stateMutability": "view",
		"type": "function"
	},
	{
		"constant": true,
		"inputs": [
			{
				"internalType": "uint256",
				"name": "_pID",
				"type": "uint256"
			}
		],
		"name": "getDeepForUser",
		"outputs": [
			{
				"internalType": "uint256",
				"name": "deep",
				"type": "uint256"
			}
		],
		"payable": false,
		"stateMutability": "view",
		"type": "function"
	},
	{
		"constant": true,
		"inputs": [
			{
				"internalType": "uint256",
				"name": "_rid",
				"type": "uint256"
			},
			{
				"internalType": "uint256",
				"name": "_weizhi",
				"type": "uint256"
			}
		],
		"name": "getExcellenceUser",
		"outputs": [
			{
				"internalType": "uint256",
				"name": "_pID",
				"type": "uint256"
			},
			{
				"internalType": "uint256",
				"name": "_totalBet",
				"type": "uint256"
			},
			{
				"internalType": "uint256",
				"name": "_baseAff",
				"type": "uint256"
			}
		],
		"payable": false,
		"stateMutability": "view",
		"type": "function"
	},
	{
		"constant": true,
		"inputs": [
			{
				"internalType": "uint256",
				"name": "_betEth",
				"type": "uint256"
			}
		],
		"name": "getLevel",
		"outputs": [
			{
				"internalType": "uint8",
				"name": "level",
				"type": "uint8"
			}
		],
		"payable": false,
		"stateMutability": "view",
		"type": "function"
	},
	{
		"constant": true,
		"inputs": [
			{
				"internalType": "address",
				"name": "_addr",
				"type": "address"
			}
		],
		"name": "getPlayerlaByAddr",
		"outputs": [
			{
				"internalType": "uint256",
				"name": "_pID",
				"type": "uint256"
			},
			{
				"internalType": "uint256",
				"name": "_less",
				"type": "uint256"
			},
			{
				"internalType": "uint256",
				"name": "_totalGen",
				"type": "uint256"
			},
			{
				"internalType": "uint256",
				"name": "_totalAff",
				"type": "uint256"
			},
			{
				"internalType": "uint256",
				"name": "totalGenH",
				"type": "uint256"
			},
			{
				"internalType": "uint256",
				"name": "totalAffH",
				"type": "uint256"
			},
			{
				"internalType": "uint256",
				"name": "_baseGen",
				"type": "uint256"
			},
			{
				"internalType": "uint256",
				"name": "_baseAff",
				"type": "uint256"
			}
		],
		"payable": false,
		"stateMutability": "view",
		"type": "function"
	},
	{
		"constant": true,
		"inputs": [
			{
				"internalType": "uint256",
				"name": "_pID",
				"type": "uint256"
			}
		],
		"name": "getUserRewardByBase",
		"outputs": [
			{
				"internalType": "uint256",
				"name": "_gen",
				"type": "uint256"
			},
			{
				"internalType": "uint256",
				"name": "_aff",
				"type": "uint256"
			},
			{
				"internalType": "uint256",
				"name": "_day",
				"type": "uint256"
			}
		],
		"payable": false,
		"stateMutability": "view",
		"type": "function"
	},
	{
		"constant": true,
		"inputs": [
			{
				"internalType": "uint256",
				"name": "_pID",
				"type": "uint256"
			}
		],
		"name": "getUserSy",
		"outputs": [
			{
				"internalType": "uint256",
				"name": "_less",
				"type": "uint256"
			}
		],
		"payable": false,
		"stateMutability": "view",
		"type": "function"
	},
	{
		"constant": true,
		"inputs": [],
		"name": "getsystemMsg",
		"outputs": [
			{
				"internalType": "uint256",
				"name": "_gbet",
				"type": "uint256"
			},
			{
				"internalType": "uint256",
				"name": "_gcc",
				"type": "uint256"
			},
			{
				"internalType": "uint256",
				"name": "_bxTotalCoin",
				"type": "uint256"
			},
			{
				"internalType": "uint256",
				"name": "_bxTime",
				"type": "uint256"
			},
			{
				"internalType": "uint256",
				"name": "_excellencepot",
				"type": "uint256"
			},
			{
				"internalType": "uint256",
				"name": "_excellenceStartTime",
				"type": "uint256"
			},
			{
				"internalType": "uint256",
				"name": "_excellenceRound",
				"type": "uint256"
			},
			{
				"internalType": "string",
				"name": "_lastChampionInviteCode",
				"type": "string"
			},
			{
				"internalType": "uint256",
				"name": "_lastChampion",
				"type": "uint256"
			}
		],
		"payable": false,
		"stateMutability": "view",
		"type": "function"
	},
	{
		"constant": true,
		"inputs": [
			{
				"internalType": "uint256",
				"name": "",
				"type": "uint256"
			}
		],
		"name": "levelReward_",
		"outputs": [
			{
				"internalType": "uint256",
				"name": "genRate",
				"type": "uint256"
			},
			{
				"internalType": "uint256",
				"name": "deepAff",
				"type": "uint256"
			},
			{
				"internalType": "uint256",
				"name": "leverage",
				"type": "uint256"
			},
			{
				"internalType": "uint256",
				"name": "invites",
				"type": "uint256"
			}
		],
		"payable": false,
		"stateMutability": "view",
		"type": "function"
	},
	{
		"constant": true,
		"inputs": [],
		"name": "nextId_",
		"outputs": [
			{
				"internalType": "uint256",
				"name": "",
				"type": "uint256"
			}
		],
		"payable": false,
		"stateMutability": "view",
		"type": "function"
	},
	{
		"constant": true,
		"inputs": [
			{
				"internalType": "string",
				"name": "",
				"type": "string"
			}
		],
		"name": "pIDInviteCode_",
		"outputs": [
			{
				"internalType": "uint256",
				"name": "",
				"type": "uint256"
			}
		],
		"payable": false,
		"stateMutability": "view",
		"type": "function"
	},
	{
		"constant": true,
		"inputs": [
			{
				"internalType": "address",
				"name": "",
				"type": "address"
			}
		],
		"name": "pIDxAddr_",
		"outputs": [
			{
				"internalType": "uint256",
				"name": "",
				"type": "uint256"
			}
		],
		"payable": false,
		"stateMutability": "view",
		"type": "function"
	},
	{
		"constant": true,
		"inputs": [
			{
				"internalType": "uint256",
				"name": "",
				"type": "uint256"
			}
		],
		"name": "playerPot_",
		"outputs": [
			{
				"internalType": "uint256",
				"name": "luckpot",
				"type": "uint256"
			},
			{
				"internalType": "uint256",
				"name": "zhuoyuepot",
				"type": "uint256"
			},
			{
				"internalType": "uint256",
				"name": "excellencepot",
				"type": "uint256"
			}
		],
		"payable": false,
		"stateMutability": "view",
		"type": "function"
	},
	{
		"constant": true,
		"inputs": [
			{
				"internalType": "uint256",
				"name": "",
				"type": "uint256"
			}
		],
		"name": "plyr_",
		"outputs": [
			{
				"internalType": "uint256",
				"name": "pID",
				"type": "uint256"
			},
			{
				"internalType": "address payable",
				"name": "addr",
				"type": "address"
			},
			{
				"internalType": "uint256",
				"name": "affId",
				"type": "uint256"
			},
			{
				"internalType": "uint256",
				"name": "totalBet",
				"type": "uint256"
			},
			{
				"internalType": "uint256",
				"name": "curGen",
				"type": "uint256"
			},
			{
				"internalType": "uint256",
				"name": "curAff",
				"type": "uint256"
			},
			{
				"internalType": "string",
				"name": "inviteCode",
				"type": "string"
			},
			{
				"internalType": "uint256",
				"name": "lastBet",
				"type": "uint256"
			},
			{
				"internalType": "uint256",
				"name": "lastReleaseTime",
				"type": "uint256"
			},
			{
				"internalType": "uint256",
				"name": "createTime",
				"type": "uint256"
			},
			{
				"internalType": "uint256",
				"name": "baseGen",
				"type": "uint256"
			},
			{
				"internalType": "uint256",
				"name": "baseAff",
				"type": "uint256"
			},
			{
				"internalType": "uint256",
				"name": "invites",
				"type": "uint256"
			}
		],
		"payable": false,
		"stateMutability": "view",
		"type": "function"
	},
	{
		"constant": true,
		"inputs": [],
		"name": "st",
		"outputs": [
			{
				"internalType": "address payable",
				"name": "",
				"type": "address"
			}
		],
		"payable": false,
		"stateMutability": "view",
		"type": "function"
	}
]